Lesson 11 Occupancy | eBird Best Practices Workshop
…
annual_closure: define the period of closure as the entire year. This works here because we’ve already subset the data to only keep observations from January, which results in the period of closure being the month of January in given year. The n_days argument can be used to define the period of closure more flexibly.

site_vars: a character vector of names of columns that define a site. This is typically the combination of variables defining the location (locality_id or latitude/longitude) and observer (observer_id).

# subset for occupancy modeling
occ <- filter_repeat_visits(ebird_filtered, 
                            min_obs = 2, max_obs = 10,
                            annual_closure = TRUE,
                            date_var = "observation_date",
                            site_vars = c("locality_id", "observer_id"))

Three new columns are added to the dataset when using the function filter_repeat_visits(): site is a unique site ID, closure_id identifies the primary period of closure (in this example the year), and n_observations is the number of visits to each site.

select(occ, site, closure_id, n_observations)
#> # A tibble: 3,656 x 3
#>   site                    closure_id n_observations
#>   <chr>                   <chr>               <int>
#> 1 L1005433_obs119886_2019 2019                    3
#> 2 L1005433_obs119886_2019 2019                    3
#> 3 L1005433_obs119886_2019 2019                    3
#> 4 L1007991_obs132896_2019 2019                    2
#> 5 L1007991_obs132896_2019 2019                    2
#> 6 L1007991_obs970026_2019 2019                    3
#> # … with 3,650 more rows
…
