Lesson 6 Presence-absence Data | eBird Best Practices I
…
We have the same number of positive observations, but have now drastically reduced the number of checklists without Cozumel Vireo observations.

6.3 Tidying up

We now have a zero-filled presence-absence dataset with duplicate group checklists removed and all observations at the species level. There are couple remaining steps that we typically run to clean up the data. First, you may have noticed some cases where observation_count is "X" in the data. This is what eBirders enter for the count to indicate that they didn’t count the number of individuals for a given species.

arrange(ebd_zf_df, desc(observation_count)) %>% 
  select(checklist_id, observation_count) %>% 
  head(10)
#> # A tibble: 10 x 2
#>   checklist_id observation_count
#>   <chr>        <chr>            
#> 1 S27259643    X                
#> 2 G1546995     X                
#> 3 G1533133     85               
#> 4 G1120861     8                
#> 5 G1140974     8                
#> 6 G1141753     690              
#> # … with 4 more rows
…
