Lesson 6 Zero-filling | eBird Best Practices I
…
            eBird Best Practices I

Lesson 6 Zero-filling

6.1 Tidying up

We now have a dataset with duplicate group checklists removed and all observations at the species level. There are couple remaining steps that we typically run to clean up the data. First, you may have noticed some cases where observation_count is "X" in the data. This is what eBirders enter for the count to indicate that they didn’t count the number of individuals for a given species.

ebd %>% 
  select(checklist_id, observation_count) %>% 
  head(10)
#> # A tibble: 10 x 2
#>   checklist_id observation_count
#>   <chr>        <chr>            
#> 1 S25539758    1                
#> 2 S22725458    1                
#> 3 S22725528    1                
#> 4 S21178384    3                
#> 5 S22479544    X                
#> 6 S21153805    1                
#> # … with 4 more rows
…
